data/sync/ALL0003.CSV

Format,2.0A,
Memory Length,5000,Memory Length,5000,
Trigger Level,1.36V,Trigger Level,1.36V,
Source,CH1,Source,CH2,
Label, ,Label, ,
Probe Ratio,1.000E+00,Probe Ratio,1.000E+00,
Vertical Units,V,Vertical Units,V,
Vertical Scale,5.000E-01,Vertical Scale,2.000E+00,
Vertical Position,-1.400E-01,Vertical Position,0.000E+00,
Horizontal Units,S,Horizontal Units,S,
Horizontal Scale,5.000E-02,Horizontal Scale,5.000E-02,
Horizontal Position,1.580E-01,Horizontal Position,1.580E-01,
Horizontal Mode,Main,Horizontal Mode,Main,
Sampling Period,1.000E-04,Sampling Period,1.000E-04,
Firmware,V1.19,Firmware,V1.19,
Time,17-May-23 22:11:58,Time,17-May-23 22:11:58,
Mode,Detail,Mode,Detail,
Waveform Data,,Waveform Data,,
-9.199999e-02,0.380000,-9.199999e-02,-0.080000,
-9.189999e-02,0.340000,-9.189999e-02,-0.160000,
-9.179999e-02,0.360000,-9.179999e-02,-0.080000,
-9.169999e-02,0.340000,-9.169999e-02,-0.160000,
-9.159999e-02,0.360000,-9.159999e-02,-0.080000,
-9.149999e-02,0.340000,-9.149999e-02,-0.160000,
-9.139999e-02,0.360000,-9.139999e-02,-0.080000,
-9.129999e-02,0.340000,-9.129999e-02,-0.160000,
-9.119999e-02,0.360000,-9.119999e-02,-0.080000,
-9.109999e-02,0.320000,-9.109999e-02,-0.160000,
-9.099999e-02,0.360000,-9.099999e-02,-0.080000,
-9.089999e-02,0.340000,-9.089999e-02,-0.160000,
-9.079999e-02,0.360000,-9.079999e-02,-0.080000,
-9.069999e-02,0.320000,-9.069999e-02,-0.160000,
-9.059999e-02,0.360000,-9.059999e-02,-0.080000,
-9.049999e-02,0.320000,-9.049999e-02,-0.160000,
-9.039999e-02,0.360000,-9.039999e-02,-0.080000,
-9.029999e-02,0.320000,-9.029999e-02,-0.160000,
-9.019999e-02,0.360000,-9.019999e-02,-0.080000,
-9.009999e-02,0.320000,-9.009999e-02,-0.160000,
-8.999999e-02,0.360000,-8.999999e-02,-0.080000,
-8.989999e-02,0.320000,-8.989999e-02,-0.160000,
-8.979999e-02,0.340000,-8.979999e-02,-0.080000,
-8.969999e-02,0.320000,-8.969999e-02,-0.160000,
-8.959999e-02,0.340000,-8.959999e-02,-0.080000,
-8.949999e-02,0.320000,-8.949999e-02,-0.160000,
-8.939999e-02,0.340000,-8.939999e-02,-0.080000,
-8.929999e-02,0.320000,-8.929999e-02,-0.160000,
-8.919999e-02,0.340000,-8.919999e-02,-0.080000,
-8.909999e-02,0.320000,-8.909999e-02,-0.160000,
-8.899999e-02,0.340000,-8.899999e-02,-0.080000,
-8.889999e-02,0.320000,-8.889999e-02,-0.160000,
-8.879999e-02,0.340000,-8.879999e-02,-0.080000,
-8.869999e-02,0.300000,-8.869999e-02,-0.160000,
-8.859999e-02,0.340000,-8.859999e-02,-0.080000,
-8.849999e-02,0.300000,-8.849999e-02,-0.160000,
-8.839999e-02,0.340000,-8.839999e-02,-0.080000,
-8.829999e-02,0.300000,-8.829999e-02,-0.160000,
-8.819999e-02,0.340000,-8.819999e-02,-0.080000,
-8.809999e-02,0.300000,-8.809999e-02,-0.160000,
-8.799999e-02,0.320000,-8.799999e-02,-0.080000,
-8.789999e-02,0.300000,-8.789999e-02,-0.160000,
-8.779999e-02,0.340000,-8.779999e-02,-0.080000,
-8.769999e-02,0.300000,-8.769999e-02,-0.160000,
-8.759999e-02,0.320000,-8.759999e-02,-0.080000,
-8.749999e-02,0.300000,-8.749999e-02,-0.160000,
-8.739999e-02,0.320000,-8.739999e-02,-0.080000,
-8.729999e-02,0.300000,-8.729999e-02,-0.160000,
-8.719999e-02,0.320000,-8.719999e-02,-0.080000,
-8.709999e-02,0.300000,-8.709999e-02,-0.160000,
-8.699999e-02,0.320000,-8.699999e-02,-0.080000,
-8.689999e-02,0.300000,-8.689999e-02,-0.160000,
-8.679999e-02,0.320000,-8.679999e-02,-0.080000,
-8.669999e-02,0.280000,-8.669999e-02,-0.160000,
-8.659999e-02,0.320000,-8.659999e-02,-0.080000,
-8.649999e-02,0.280000,-8.649999e-02,-0.160000,
-8.639999e-02,0.320000,-8.639999e-02,-0.080000,
-8.629999e-02,0.280000,-8.629999e-02,-0.160000,
-8.619999e-02,0.320000,-8.619999e-02,-0.080000,
-8.609999e-02,0.280000,-8.609999e-02,-0.160000,
-8.599999e-02,0.300000,-8.599999e-02,-0.080000,
-8.589999e-02,0.280000,-8.589999e-02,-0.160000,
-8.579999e-02,0.320000,-8.579999e-02,-0.080000,
-8.569999e-02,0.280000,-8.569999e-02,-0.160000,
-8.559999e-02,0.300000,-8.559999e-02,-0.080000,
-8.549999e-02,0.280000,-8.549999e-02,-0.160000,
-8.539999e-02,0.300000,-8.539999e-02,-0.080000,
-8.529999e-02,0.260000,-8.529999e-02,-0.160000,
-8.519999e-02,0.300000,-8.519999e-02,-0.080000,
-8.509999e-02,0.260000,-8.509999e-02,-0.160000,
-8.499999e-02,0.300000,-8.499999e-02,-0.080000,
-8.489999e-02,0.260000,-8.489999e-02,-0.160000,
-8.479999e-02,0.300000,-8.479999e-02,-0.080000,
-8.469999e-02,0.260000,-8.469999e-02,-0.160000,
-8.459999e-02,0.300000,-8.459999e-02,-0.080000,
-8.449999e-02,0.260000,-8.449999e-02,-0.160000,
-8.439999e-02,0.300000,-8.439999e-02,-0.080000,
-8.429999e-02,0.260000,-8.429999e-02,-0.160000,
-8.419999e-02,0.280000,-8.419999e-02,-0.080000,
-8.409999e-02,0.260000,-8.409999e-02,-0.160000,
-8.399999e-02,0.300000,-8.399999e-02,-0.080000,
-8.389999e-02,0.260000,-8.389999e-02,-0.160000,
-8.379999e-02,0.280000,-8.379999e-02,-0.080000,
-8.369999e-02,0.260000,-8.369999e-02,-0.160000,
-8.359999e-02,0.280000,-8.359999e-02,-0.080000,
-8.349999e-02,0.240000,-8.349999e-02,-0.160000,
-8.339999e-02,0.280000,-8.339999e-02,-0.080000,
-8.329999e-02,0.240000,-8.329999e-02,-0.160000,
-8.319999e-02,0.280000,-8.319999e-02,-0.080000,
-8.309999e-02,0.240000,-8.309999e-02,-0.160000,
-8.299999e-02,0.280000,-8.299999e-02,-0.080000,
-8.289999e-02,0.240000,-8.289999e-02,-0.160000,
-8.279999e-02,0.280000,-8.279999e-02,-0.080000,
-8.269999e-02,0.240000,-8.269999e-02,-0.160000,
-8.259999e-02,0.280000,-8.259999e-02,-0.080000,
-8.249999e-02,0.240000,-8.249999e-02,-0.160000,
-8.239999e-02,0.260000,-8.239999e-02,-0.080000,
-8.229999e-02,0.240000,-8.229999e-02,-0.160000,
-8.219999e-02,0.280000,-8.219999e-02,-0.080000,
-8.209999e-02,0.240000,-8.209999e-02,-0.160000,
-8.199999e-02,0.260000,-8.199999e-02,-0.080000,
-8.189999e-02,0.240000,-8.189999e-02,-0.160000,
-8.179999e-02,0.260000,-8.179999e-02,-0.080000,
-8.169999e-02,0.240000,-8.169999e-02,-0.160000,
-8.159999e-02,0.260000,-8.159999e-02,-0.080000,
-8.149999e-02,0.240000,-8.149999e-02,-0.160000,
-8.139999e-02,0.260000,-8.139999e-02,-0.080000,
-8.129999e-02,0.220000,-8.129999e-02,-0.160000,
-8.119999e-02,0.260000,-8.119999e-02,-0.080000,
-8.109999e-02,0.220000,-8.109999e-02,-0.160000,
-8.099999e-02,0.260000,-8.099999e-02,-0.080000,
-8.089999e-02,0.220000,-8.089999e-02,-0.160000,
-8.079999e-02,0.260000,-8.079999e-02,-0.080000,
-8.069999e-02,0.220000,-8.069999e-02,-0.160000,
-8.059999e-02,0.260000,-8.059999e-02,-0.080000,
-8.049999e-02,0.220000,-8.049999e-02,-0.160000,
-8.039999e-02,0.260000,-8.039999e-02,-0.080000,
-8.029999e-02,0.220000,-8.029999e-02,-0.160000,
-8.019999e-02,0.240000,-8.019999e-02,-0.080000,
-8.009999e-02,0.220000,-8.009999e-02,-0.160000,
-7.999999e-02,0.240000,-7.999999e-02,-0.080000,
-7.989999e-02,0.220000,-7.989999e-02,-0.160000,
-7.979999e-02,0.240000,-7.979999e-02,-0.080000,
-7.969999e-02,0.220000,-7.969999e-02,-0.160000,
-7.959999e-02,0.240000,-7.959999e-02,-0.080000,
-7.949999e-02,0.220000,-7.949999e-02,-0.160000,
-7.939999e-02,0.240000,-7.939999e-02,-0.080000,
-7.929999e-02,0.200000,-7.929999e-02,-0.160000,
-7.919999e-02,0.240000,-7.919999e-02,-0.080000,
-7.909999e-02,0.200000,-7.909999e-02,-0.160000,
-7.899999e-02,0.240000,-7.899999e-02,-0.080000,
-7.889999e-02,0.200000,-7.889999e-02,-0.160000,
-7.879999e-02,0.240000,-7.879999e-02,-0.080000,
-7.869999e-02,0.200000,-7.869999e-02,-0.160000,
-7.859999e-02,0.240000,-7.859999e-02,-0.080000,
-7.849999e-02,0.200000,-7.849999e-02,-0.160000,
-7.839999e-02,0.220000,-7.839999e-02,-0.080000,
-7.829999e-02,0.200000,-7.829999e-02,-0.160000,
-7.819999e-02,0.220000,-7.819999e-02,0.000000,
-7.809999e-02,0.200000,-7.809999e-02,-0.160000,
-7.799999e-02,0.220000,-7.799999e-02,-0.080000,
-7.789999e-02,0.200000,-7.789999e-02,-0.160000,
-7.779999e-02,0.220000,-7.779999e-02,-0.080000,
-7.769999e-02,0.200000,-7.769999e-02,-0.160000,
-7.759999e-02,0.220000,-7.759999e-02,-0.080000,
-7.749999e-02,0.200000,-7.749999e-02,-0.160000,
-7.739999e-02,0.220000,-7.739999e-02,-0.080000,
-7.729999e-02,0.180000,-7.729999e-02,-0.160000,
-7.719999e-02,0.220000,-7.719999e-02,-0.080000,
-7.709999e-02,0.180000,-7.709999e-02,-0.160000,
-7.699999e-02,0.220000,-7.699999e-02,-0.080000,
-7.689999e-02,0.180000,-7.689999e-02,-0.160000,
-7.679999e-02,0.220000,-7.679999e-02,-0.080000,
-7.669999e-02,0.180000,-7.669999e-02,-0.160000,
-7.659999e-02,0.200000,-7.659999e-02,-0.080000,
-7.649999e-02,0.180000,-7.649999e-02,-0.160000,
-7.639999e-02,0.200000,-7.639999e-02,-0.080000,
-7.629999e-02,0.180000,-7.629999e-02,-0.160000,
-7.619999e-02,0.200000,-7.619999e-02,-0.080000,
-7.609999e-02,0.160000,-7.609999e-02,-0.160000,
-7.599999e-02,0.200000,-7.599999e-02,-0.080000,
-7.589999e-02,0.160000,-7.589999e-02,-0.160000,
-7.579999e-02,0.200000,-7.579999e-02,-0.080000,
-7.569999e-02,0.160000,-7.569999e-02,-0.160000,
-7.559999e-02,0.200000,-7.559999e-02,-0.080000,
-7.549999e-02,0.160000,-7.549999e-02,-0.160000,
-7.539999e-02,0.200000,-7.539999e-02,-0.080000,
-7.529999e-02,0.160000,-7.529999e-02,-0.160000,
-7.519999e-02,0.200000,-7.519999e-02,-0.080000,
-7.509999e-02,0.160000,-7.509999e-02,-0.160000,
-7.499999e-02,0.200000,-7.499999e-02,-0.080000,
-7.489999e-02,0.160000,-7.489999e-02,-0.160000,
-7.479999e-02,0.180000,-7.479999e-02,-0.080000,
-7.469999e-02,0.160000,-7.469999e-02,-0.160000,
-7.459999e-02,0.180000,-7.459999e-02,-0.080000,
-7.449999e-02,0.160000,-7.449999e-02,-0.160000,
-7.439999e-02,0.180000,-7.439999e-02,-0.080000,
-7.429999e-02,0.160000,-7.429999e-02,-0.160000,
-7.419999e-02,0.200000,-7.419999e-02,-0.080000,
-7.409999e-02,0.160000,-7.409999e-02,-0.160000,
-7.399999e-02,0.180000,-7.399999e-02,-0.080000,
-7.389999e-02,0.140000,-7.389999e-02,-0.160000,
-7.379999e-02,0.180000,-7.379999e-02,-0.080000,
-7.369999e-02,0.140000,-7.369999e-02,-0.160000,
-7.359999e-02,0.180000,-7.359999e-02,-0.080000,
-7.349999e-02,0.140000,-7.349999e-02,-0.160000,
-7.339999e-02,0.180000,-7.339999e-02,-0.080000,
-7.329999e-02,0.140000,-7.329999e-02,-0.160000,
-7.319999e-02,0.160000,-7.319999e-02,-0.080000,
-7.309999e-02,0.140000,-7.309999e-02,-0.160000,
-7.299999e-02,0.180000,-7.299999e-02,-0.080000,
-7.289999e-02,0.140000,-7.289999e-02,-0.160000,
-7.279999e-02,0.160000,-7.279999e-02,-0.080000,
-7.269999e-02,0.140000,-7.269999e-02,-0.160000,
-7.259999e-02,0.160000,-7.259999e-02,-0.080000,
-7.249999e-02,0.120000,-7.249999e-02,-0.160000,
-7.239999e-02,0.160000,-7.239999e-02,-0.080000,
-7.229999e-02,0.120000,-7.229999e-02,-0.160000,
-7.219999e-02,0.160000,-7.219999e-02,-0.080000,
-7.209999e-02,0.120000,-7.209999e-02,-0.160000,
-7.199999e-02,0.160000,-7.199999e-02,-0.080000,
-7.189999e-02,0.120000,-7.189999e-02,-0.160000,
-7.179999e-02,0.160000,-7.179999e-02,-0.160000,
-7.169999e-02,0.120000,-7.169999e-02,0.000000,
-7.159999e-02,0.160000,-7.159999e-02,-0.080000,
-7.149999e-02,0.120000,-7.149999e-02,-0.160000,
-7.139999e-02,0.160000,-7.139999e-02,-0.080000,
-7.129999e-02,0.120000,-7.129999e-02,-0.160000,
-7.119999e-02,0.140000,-7.119999e-02,-0.080000,
-7.109999e-02,0.120000,-7.109999e-02,-0.160000,
-7.099999e-02,0.140000,-7.099999e-02,-0.080000,
-7.089999e-02,0.120000,-7.089999e-02,-0.160000,
-7.079999e-02,0.140000,-7.079999e-02,-0.080000,
-7.069999e-02,0.120000,-7.069999e-02,-0.160000,
-7.059999e-02,0.140000,-7.059999e-02,-0.080000,
-7.049999e-02,0.100000,-7.049999e-02,-0.160000,
-7.039999e-02,0.140000,-7.039999e-02,-0.080000,
-7.029999e-02,0.100000,-7.029999e-02,-0.160000,
-7.019999e-02,0.140000,-7.019999e-02,-0.080000,
-7.009999e-02,0.100000,-7.009999e-02,-0.160000,
-6.999999e-02,0.140000,-6.999999e-02,-0.080000,
-6.989999e-02,0.100000,-6.989999e-02,-0.160000,
-6.979999e-02,0.120000,-6.979999e-02,-0.080000,
-6.969999e-02,0.100000,-6.969999e-02,-0.160000,
-6.959999e-02,0.120000,-6.959999e-02,-0.080000,
-6.949999e-02,0.100000,-6.949999e-02,-0.160000,
-6.939999e-02,0.120000,-6.939999e-02,-0.080000,
-6.929999e-02,0.100000,-6.929999e-02,-0.160000,
-6.919999e-02,0.120000,-6.919999e-02,-0.080000,
-6.909999e-02,0.100000,-6.909999e-02,-0.160000,
-6.899999e-02,0.120000,-6.899999e-02,-0.080000,
-6.889999e-02,0.100000,-6.889999e-02,-0.160000,
-6.879999e-02,0.120000,-6.879999e-02,-0.080000,
-6.869999e-02,0.100000,-6.869999e-02,-0.160000,
-6.859999e-02,0.120000,-6.859999e-02,-0.080000,
-6.849999e-02,0.080000,-6.849999e-02,-0.160000,
-6.839999e-02,0.120000,-6.839999e-02,-0.080000,
-6.829999e-02,0.080000,-6.829999e-02,-0.160000,
-6.819999e-02,0.120000,-6.819999e-02,-0.080000,
-6.809999e-02,0.080000,-6.809999e-02,-0.160000,
-6.799999e-02,0.120000,-6.799999e-02,-0.080000,
-6.789999e-02,0.080000,-6.789999e-02,-0.160000,
-6.779999e-02,0.100000,-6.779999e-02,-0.080000,
-6.769999e-02,0.080000,-6.769999e-02,-0.160000,
-6.759999e-02,0.100000,-6.759999e-02,-0.080000,
-6.749999e-02,0.080000,-6.749999e-02,-0.160000,
-6.739999e-02,0.100000,-6.739999e-02,-0.080000,
-6.729999e-02,0.080000,-6.729999e-02,-0.160000,
-6.719999e-02,0.100000,-6.719999e-02,-0.080000,
-6.709999e-02,0.060000,-6.709999e-02,-0.160000,
-6.699999e-02,0.100000,-6.699999e-02,-0.080000,
-6.689999e-02,0.060000,-6.689999e-02,-0.160000,
-6.679999e-02,0.100000,-6.679999e-02,-0.080000,
-6.669999e-02,0.060000,-6.669999e-02,-0.160000,
-6.659999e-02,0.100000,-6.659999e-02,-0.080000,
-6.649999e-02,0.060000,-6.649999e-02,-0.160000,
-6.639999e-02,0.100000,-6.639999e-02,-0.080000,
-6.629999e-02,0.060000,-6.629999e-02,-0.160000,
-6.619999e-02,0.100000,-6.619999e-02,-0.080000,
-6.609999e-02,0.060000,-6.609999e-02,-0.160000,
-6.599999e-02,0.080000,-6.599999e-02,-0.080000,
-6.589999e-02,0.060000,-6.589999e-02,-0.160000,
-6.579999e-02,0.080000,-6.579999e-02,-0.080000,
-6.569999e-02,0.060000,-6.569999e-02,-0.160000,
-6.559999e-02,0.080000,-6.559999e-02,-0.080000,
-6.549999e-02,0.060000,-6.549999e-02,-0.160000,
-6.539999e-02,0.080000,-6.539999e-02,-0.080000,
-6.529999e-02,0.040000,-6.529999e-02,-0.160000,
-6.519999e-02,0.080000,-6.519999e-02,-0.080000,
-6.509999e-02,0.040000,-6.509999e-02,-0.160000,
-6.499999e-02,0.080000,-6.499999e-02,-0.080000,
-6.489999e-02,0.060000,-6.489999e-02,-0.160000,
-6.479999e-02,0.080000,-6.479999e-02,-0.080000,
-6.469999e-02,0.040000,-6.469999e-02,-0.160000,
-6.459999e-02,0.080000,-6.459999e-02,-0.080000,
-6.449999e-02,0.040000,-6.449999e-02,-0.160000,
-6.439999e-02,0.080000,-6.439999e-02,-0.080000,
-6.429999e-02,0.040000,-6.429999e-02,-0.160000,
-6.419999e-02,0.080000,-6.419999e-02,-0.080000,
-6.409999e-02,0.040000,-6.409999e-02,-0.160000,
-6.399999e-02,0.080000,-6.399999e-02,-0.080000,
-6.389999e-02,0.040000,-6.389999e-02,-0.160000,
-6.379999e-02,0.080000,-6.379999e-02,-0.080000,
-6.369999e-02,0.040000,-6.369999e-02,-0.160000,
-6.359999e-02,0.060000,-6.359999e-02,-0.080000,
-6.349999e-02,0.040000,-6.349999e-02,-0.160000,
-6.339999e-02,0.060000,-6.339999e-02,-0.080000,
-6.329999e-02,0.040000,-6.329999e-02,-0.160000,
-6.319999e-02,0.060000,-6.319999e-02,-0.080000,
-6.309999e-02,0.020000,-6.309999e-02,-0.160000,
-6.299999e-02,0.060000,-6.299999e-02,-0.080000,
-6.289999e-02,0.020000,-6.289999e-02,-0.160000,
-6.279999e-02,0.060000,-6.279999e-02,-0.080000,
-6.269999e-02,0.020000,-6.269999e-02,-0.160000,
-6.259999e-02,0.060000,-6.259999e-02,-0.080000,
-6.249999e-02,0.020000,-6.249999e-02,-0.160000,
-6.239999e-02,0.060000,-6.239999e-02,0.000000,
-6.229999e-02,0.020000,-6.229999e-02,-0.160000,
-6.219999e-02,0.060000,-6.219999e-02,-0.080000,
-6.209999e-02,0.020000,-6.209999e-02,-0.160000,
-6.199999e-02,0.040000,-6.199999e-02,-0.080000,
-6.189999e-02,0.020000,-6.189999e-02,-0.160000,
-6.179999e-02,0.040000,-6.179999e-02,-0.080000,
-6.169999e-02,0.020000,-6.169999e-02,-0.160000,
-6.159999e-02,0.040000,-6.159999e-02,-0.080000,
-6.149999e-02,0.020000,-6.149999e-02,-0.160000,
-6.139999e-02,0.040000,-6.139999e-02,-0.080000,
-6.129999e-02,0.000000,-6.129999e-02,-0.160000,
-6.119999e-02,0.040000,-6.119999e-02,-0.080000,
-6.109999e-02,0.000000,-6.109999e-02,-0.160000,
-6.099999e-02,0.040000,-6.099999e-02,-0.080000,
-6.089999e-02,0.000000,-6.089999e-02,-0.160000,
-6.079999e-02,0.020000,-6.079999e-02,-0.080000,
-6.069999e-02,0.000000,-6.069999e-02,-0.160000,
-6.059999e-02,0.040000,-6.059999e-02,-0.080000,
-6.049999e-02,0.000000,-6.049999e-02,-0.160000,
-6.039999e-02,0.020000,-6.039999e-02,-0.160000,
-6.029999e-02,0.000000,-6.029999e-02,0.000000,
-6.019999e-02,0.020000,-6.019999e-02,-0.080000,
-6.009999e-02,0.000000,-6.009999e-02,-0.160000,
-5.999999e-02,0.020000,-5.999999e-02,-0.080000,
-5.989999e-02,0.000000,-5.989999e-02,-0.160000,
-5.979999e-02,0.020000,-5.979999e-02,-0.080000,
-5.969999e-02,0.000000,-5.969999e-02,-0.160000,
-5.959999e-02,0.020000,-5.959999e-02,-0.080000,
-5.949999e-02,-0.020000,-5.949999e-02,-0.160000,
-5.939999e-02,0.020000,-5.939999e-02,0.000000,
-5.929999e-02,-0.020000,-5.929999e-02,-0.160000,
-5.919999e-02,0.020000,-5.919999e-02,-0.080000,
-5.909999e-02,-0.020000,-5.909999e-02,-0.160000,
-5.899999e-02,0.020000,-5.899999e-02,-0.080000,
-5.889999e-02,-0.020000,-5.889999e-02,-0.160000,
-5.879999e-02,0.000000,-5.879999e-02,-0.080000,
-5.869999e-02,-0.020000,-5.869999e-02,-0.160000,
-5.859999e-02,0.000000,-5.859999e-02,-0.080000,
-5.849999e-02,-0.020000,-5.849999e-02,-0.160000,
-5.839999e-02,0.000000,-5.839999e-02,-0.080000,
-5.829999e-02,-0.020000,-5.829999e-02,-0.160000,
-5.819999e-02,0.000000,-5.819999e-02,-0.080000,
-5.809999e-02,-0.020000,-5.809999e-02,-0.160000,
-5.799999e-02,0.000000,-5.799999e-02,-0.080000,
-5.789999e-02,-0.020000,-5.789999e-02,-0.160000,
-5.779999e-02,0.000000,-5.779999e-02,-0.080000,
-5.769999e-02,-0.040000,-5.769999e-02,-0.160000,
-5.759999e-02,0.000000,-5.759999e-02,-0.080000,
-5.749999e-02,-0.040000,-5.749999e-02,-0.160000,
-5.739999e-02,0.000000,-5.739999e-02,-0.080000,
-5.729999e-02,-0.040000,-5.729999e-02,-0.160000,
-5.719999e-02,0.000000,-5.719999e-02,-0.080000,
-5.709999e-02,-0.040000,-5.709999e-02,-0.160000,
-5.699999e-02,-0.020000,-5.699999e-02,-0.080000,
-5.689999e-02,-0.040000,-5.689999e-02,-0.160000,
-5.679999e-02,-0.020000,-5.679999e-02,-0.080000,
-5.669999e-02,-0.040000,-5.669999e-02,-0.160000,
-5.659999e-02,-0.020000,-5.659999e-02,-0.080000,
-5.649999e-02,-0.040000,-5.649999e-02,-0.160000,
-5.639999e-02,-0.020000,-5.639999e-02,0.000000,
-5.629999e-02,-0.040000,-5.629999e-02,-0.160000,
-5.619999e-02,-0.020000,-5.619999e-02,-0.080000,
-5.609999e-02,-0.040000,-5.609999e-02,-0.160000,
-5.599999e-02,-0.020000,-5.599999e-02,-0.080000,
-5.589999e-02,-0.060000,-5.589999e-02,-0.160000,
-5.579999e-02,-0.020000,-5.579999e-02,0.000000,
-5.569999e-02,-0.060000,-5.569999e-02,-0.160000,
-5.559999e-02,-0.020000,-5.559999e-02,-0.080000,
-5.549999e-02,-0.060000,-5.549999e-02,-0.160000,
-5.539999e-02,-0.020000,-5.539999e-02,-0.080000,
-5.529999e-02,-0.060000,-5.529999e-02,-0.160000,
-5.519999e-02,-0.020000,-5.519999e-02,-0.080000,
-5.509999e-02,-0.060000,-5.509999e-02,-0.160000,
-5.499999e-02,-0.020000,-5.499999e-02,-0.080000,
-5.489999e-02,-0.060000,-5.489999e-02,-0.160000,
-5.479999e-02,-0.040000,-5.479999e-02,-0.080000,
-5.469999e-02,-0.080000,-5.469999e-02,-0.160000,
-5.459999e-02,-0.040000,-5.459999e-02,-0.080000,
-5.449999e-02,-0.080000,-5.449999e-02,-0.160000,
-5.439999e-02,-0.040000,-5.439999e-02,-0.080000,
-5.429999e-02,-0.060000,-5.429999e-02,-0.160000,
-5.419999e-02,-0.040000,-5.419999e-02,-0.080000,
-5.409999e-02,-0.080000,-5.409999e-02,-0.160000,
-5.399999e-02,-0.040000,-5.399999e-02,-0.080000,
-5.389999e-02,-0.080000,-5.389999e-02,-0.160000,
-5.379999e-02,-0.040000,-5.379999e-02,-0.080000,
-5.369999e-02,-0.080000,-5.369999e-02,-0.160000,
-5.359999e-02,-0.040000,-5.359999e-02,-0.080000,
-5.349999e-02,-0.080000,-5.349999e-02,-0.160000,
-5.339999e-02,-0.040000,-5.339999e-02,-0.080000,
-5.329999e-02,-0.080000,-5.329999e-02,-0.160000,
-5.319999e-02,-0.040000,-5.319999e-02,-0.080000,
-5.309999e-02,-0.080000,-5.309999e-02,-0.160000,
-5.299999e-02,-0.060000,-5.299999e-02,-0.080000,
-5.289999e-02,-0.080000,-5.289999e-02,-0.160000,
-5.279999e-02,-0.060000,-5.279999e-02,-0.080000,
-5.269999e-02,-0.080000,-5.269999e-02,-0.160000,
-5.259999e-02,-0.060000,-5.259999e-02,-0.080000,
-5.249999e-02,-0.080000,-5.249999e-02,-0.160000,
-5.239999e-02,-0.060000,-5.239999e-02,-0.080000,
-5.229999e-02,-0.080000,-5.229999e-02,-0.160000,
-5.219999e-02,-0.060000,-5.219999e-02,-0.080000,
-5.209999e-02,-0.100000,-5.209999e-02,-0.160000,
